^M:\VERLOCKXI\SRC\COMMON\BLOWFISH.CPP
/c /IM:\VERLOCKXI\WIN32\VCXPROJ\..\EXTERNAL /IM:\VERLOCKXI\WIN32\VCXPROJ\..\EXTERNAL\MYSQL /Zi /nologo /W3 /WX /diagnostics:classic /O2 /Oi /GL /D WIN32 /D NOMINMAX /D FMT_HEADER_ONLY /D FMT_USE_WINDOWS_H=0 /D _CRT_SECURE_NO_WARNINGS /D _CRT_NONSTDC_NO_DEPRECATE /D NDEBUG /D _CONSOLE /D WIN32 /D NDEBUG /D _CONSOLE /D _SILENCE_CXX17_OLD_ALLOCATOR_MEMBERS_DEPRECATION_WARNING /Gm- /EHsc /MD /GS /Gy /fp:precise /Zc:wchar_t /Zc:forScope /Zc:inline /std:c++17 /Fo"DSSEARCH-SERVER_X64\RELEASE\\" /Fd"DSSEARCH-SERVER_X64\RELEASE\VC141.PDB" /Gd /TP /FC M:\VERLOCKXI\SRC\COMMON\BLOWFISH.CPP
^M:\VERLOCKXI\SRC\COMMON\MD52.CPP
/c /IM:\VERLOCKXI\WIN32\VCXPROJ\..\EXTERNAL /IM:\VERLOCKXI\WIN32\VCXPROJ\..\EXTERNAL\MYSQL /Zi /nologo /W3 /WX /diagnostics:classic /O2 /Oi /GL /D WIN32 /D NOMINMAX /D FMT_HEADER_ONLY /D FMT_USE_WINDOWS_H=0 /D _CRT_SECURE_NO_WARNINGS /D _CRT_NONSTDC_NO_DEPRECATE /D NDEBUG /D _CONSOLE /D WIN32 /D NDEBUG /D _CONSOLE /D _SILENCE_CXX17_OLD_ALLOCATOR_MEMBERS_DEPRECATION_WARNING /Gm- /EHsc /MD /GS /Gy /fp:precise /Zc:wchar_t /Zc:forScope /Zc:inline /std:c++17 /Fo"DSSEARCH-SERVER_X64\RELEASE\\" /Fd"DSSEARCH-SERVER_X64\RELEASE\VC141.PDB" /Gd /TP /FC M:\VERLOCKXI\SRC\COMMON\MD52.CPP
^M:\VERLOCKXI\SRC\COMMON\SHOWMSG.CPP
/c /IM:\VERLOCKXI\WIN32\VCXPROJ\..\EXTERNAL /IM:\VERLOCKXI\WIN32\VCXPROJ\..\EXTERNAL\MYSQL /Zi /nologo /W3 /WX /diagnostics:classic /O2 /Oi /GL /D WIN32 /D NOMINMAX /D FMT_HEADER_ONLY /D FMT_USE_WINDOWS_H=0 /D _CRT_SECURE_NO_WARNINGS /D _CRT_NONSTDC_NO_DEPRECATE /D NDEBUG /D _CONSOLE /D WIN32 /D NDEBUG /D _CONSOLE /D _SILENCE_CXX17_OLD_ALLOCATOR_MEMBERS_DEPRECATION_WARNING /Gm- /EHsc /MD /GS /Gy /fp:precise /Zc:wchar_t /Zc:forScope /Zc:inline /std:c++17 /Fo"DSSEARCH-SERVER_X64\RELEASE\\" /Fd"DSSEARCH-SERVER_X64\RELEASE\VC141.PDB" /Gd /TP /FC M:\VERLOCKXI\SRC\COMMON\SHOWMSG.CPP
^M:\VERLOCKXI\SRC\COMMON\SQL.CPP
/c /IM:\VERLOCKXI\WIN32\VCXPROJ\..\EXTERNAL /IM:\VERLOCKXI\WIN32\VCXPROJ\..\EXTERNAL\MYSQL /Zi /nologo /W3 /WX /diagnostics:classic /O2 /Oi /GL /D WIN32 /D NOMINMAX /D FMT_HEADER_ONLY /D FMT_USE_WINDOWS_H=0 /D _CRT_SECURE_NO_WARNINGS /D _CRT_NONSTDC_NO_DEPRECATE /D NDEBUG /D _CONSOLE /D WIN32 /D NDEBUG /D _CONSOLE /D _SILENCE_CXX17_OLD_ALLOCATOR_MEMBERS_DEPRECATION_WARNING /Gm- /EHsc /MD /GS /Gy /fp:precise /Zc:wchar_t /Zc:forScope /Zc:inline /std:c++17 /Fo"DSSEARCH-SERVER_X64\RELEASE\\" /Fd"DSSEARCH-SERVER_X64\RELEASE\VC141.PDB" /Gd /TP /FC M:\VERLOCKXI\SRC\COMMON\SQL.CPP
^M:\VERLOCKXI\SRC\COMMON\TASKMGR.CPP
/c /IM:\VERLOCKXI\WIN32\VCXPROJ\..\EXTERNAL /IM:\VERLOCKXI\WIN32\VCXPROJ\..\EXTERNAL\MYSQL /Zi /nologo /W3 /WX /diagnostics:classic /O2 /Oi /GL /D WIN32 /D NOMINMAX /D FMT_HEADER_ONLY /D FMT_USE_WINDOWS_H=0 /D _CRT_SECURE_NO_WARNINGS /D _CRT_NONSTDC_NO_DEPRECATE /D NDEBUG /D _CONSOLE /D WIN32 /D NDEBUG /D _CONSOLE /D _SILENCE_CXX17_OLD_ALLOCATOR_MEMBERS_DEPRECATION_WARNING /Gm- /EHsc /MD /GS /Gy /fp:precise /Zc:wchar_t /Zc:forScope /Zc:inline /std:c++17 /Fo"DSSEARCH-SERVER_X64\RELEASE\\" /Fd"DSSEARCH-SERVER_X64\RELEASE\VC141.PDB" /Gd /TP /FC M:\VERLOCKXI\SRC\COMMON\TASKMGR.CPP
^M:\VERLOCKXI\SRC\COMMON\TIMER.CPP
/c /IM:\VERLOCKXI\WIN32\VCXPROJ\..\EXTERNAL /IM:\VERLOCKXI\WIN32\VCXPROJ\..\EXTERNAL\MYSQL /Zi /nologo /W3 /WX /diagnostics:classic /O2 /Oi /GL /D WIN32 /D NOMINMAX /D FMT_HEADER_ONLY /D FMT_USE_WINDOWS_H=0 /D _CRT_SECURE_NO_WARNINGS /D _CRT_NONSTDC_NO_DEPRECATE /D NDEBUG /D _CONSOLE /D WIN32 /D NDEBUG /D _CONSOLE /D _SILENCE_CXX17_OLD_ALLOCATOR_MEMBERS_DEPRECATION_WARNING /Gm- /EHsc /MD /GS /Gy /fp:precise /Zc:wchar_t /Zc:forScope /Zc:inline /std:c++17 /Fo"DSSEARCH-SERVER_X64\RELEASE\\" /Fd"DSSEARCH-SERVER_X64\RELEASE\VC141.PDB" /Gd /TP /FC M:\VERLOCKXI\SRC\COMMON\TIMER.CPP
^M:\VERLOCKXI\SRC\COMMON\UTILS.CPP
/c /IM:\VERLOCKXI\WIN32\VCXPROJ\..\EXTERNAL /IM:\VERLOCKXI\WIN32\VCXPROJ\..\EXTERNAL\MYSQL /Zi /nologo /W3 /WX /diagnostics:classic /O2 /Oi /GL /D WIN32 /D NOMINMAX /D FMT_HEADER_ONLY /D FMT_USE_WINDOWS_H=0 /D _CRT_SECURE_NO_WARNINGS /D _CRT_NONSTDC_NO_DEPRECATE /D NDEBUG /D _CONSOLE /D WIN32 /D NDEBUG /D _CONSOLE /D _SILENCE_CXX17_OLD_ALLOCATOR_MEMBERS_DEPRECATION_WARNING /Gm- /EHsc /MD /GS /Gy /fp:precise /Zc:wchar_t /Zc:forScope /Zc:inline /std:c++17 /Fo"DSSEARCH-SERVER_X64\RELEASE\\" /Fd"DSSEARCH-SERVER_X64\RELEASE\VC141.PDB" /Gd /TP /FC M:\VERLOCKXI\SRC\COMMON\UTILS.CPP
^M:\VERLOCKXI\SRC\SEARCH\DATA_LOADER.CPP
/c /IM:\VERLOCKXI\WIN32\VCXPROJ\..\EXTERNAL /IM:\VERLOCKXI\WIN32\VCXPROJ\..\EXTERNAL\MYSQL /Zi /nologo /W3 /WX /diagnostics:classic /O2 /Oi /GL /D WIN32 /D NOMINMAX /D FMT_HEADER_ONLY /D FMT_USE_WINDOWS_H=0 /D _CRT_SECURE_NO_WARNINGS /D _CRT_NONSTDC_NO_DEPRECATE /D NDEBUG /D _CONSOLE /D WIN32 /D NDEBUG /D _CONSOLE /D _SILENCE_CXX17_OLD_ALLOCATOR_MEMBERS_DEPRECATION_WARNING /Gm- /EHsc /MD /GS /Gy /fp:precise /Zc:wchar_t /Zc:forScope /Zc:inline /std:c++17 /Fo"DSSEARCH-SERVER_X64\RELEASE\\" /Fd"DSSEARCH-SERVER_X64\RELEASE\VC141.PDB" /Gd /TP /FC M:\VERLOCKXI\SRC\SEARCH\DATA_LOADER.CPP
^M:\VERLOCKXI\SRC\SEARCH\PACKETS\AUCTION_HISTORY.CPP
/c /IM:\VERLOCKXI\WIN32\VCXPROJ\..\EXTERNAL /IM:\VERLOCKXI\WIN32\VCXPROJ\..\EXTERNAL\MYSQL /Zi /nologo /W3 /WX /diagnostics:classic /O2 /Oi /GL /D WIN32 /D NOMINMAX /D FMT_HEADER_ONLY /D FMT_USE_WINDOWS_H=0 /D _CRT_SECURE_NO_WARNINGS /D _CRT_NONSTDC_NO_DEPRECATE /D NDEBUG /D _CONSOLE /D WIN32 /D NDEBUG /D _CONSOLE /D _SILENCE_CXX17_OLD_ALLOCATOR_MEMBERS_DEPRECATION_WARNING /Gm- /EHsc /MD /GS /Gy /fp:precise /Zc:wchar_t /Zc:forScope /Zc:inline /std:c++17 /Fo"DSSEARCH-SERVER_X64\RELEASE\\" /Fd"DSSEARCH-SERVER_X64\RELEASE\VC141.PDB" /Gd /TP /FC M:\VERLOCKXI\SRC\SEARCH\PACKETS\AUCTION_HISTORY.CPP
^M:\VERLOCKXI\SRC\SEARCH\PACKETS\AUCTION_LIST.CPP
/c /IM:\VERLOCKXI\WIN32\VCXPROJ\..\EXTERNAL /IM:\VERLOCKXI\WIN32\VCXPROJ\..\EXTERNAL\MYSQL /Zi /nologo /W3 /WX /diagnostics:classic /O2 /Oi /GL /D WIN32 /D NOMINMAX /D FMT_HEADER_ONLY /D FMT_USE_WINDOWS_H=0 /D _CRT_SECURE_NO_WARNINGS /D _CRT_NONSTDC_NO_DEPRECATE /D NDEBUG /D _CONSOLE /D WIN32 /D NDEBUG /D _CONSOLE /D _SILENCE_CXX17_OLD_ALLOCATOR_MEMBERS_DEPRECATION_WARNING /Gm- /EHsc /MD /GS /Gy /fp:precise /Zc:wchar_t /Zc:forScope /Zc:inline /std:c++17 /Fo"DSSEARCH-SERVER_X64\RELEASE\\" /Fd"DSSEARCH-SERVER_X64\RELEASE\VC141.PDB" /Gd /TP /FC M:\VERLOCKXI\SRC\SEARCH\PACKETS\AUCTION_LIST.CPP
^M:\VERLOCKXI\SRC\SEARCH\PACKETS\LINKSHELL_LIST.CPP
/c /IM:\VERLOCKXI\WIN32\VCXPROJ\..\EXTERNAL /IM:\VERLOCKXI\WIN32\VCXPROJ\..\EXTERNAL\MYSQL /Zi /nologo /W3 /WX /diagnostics:classic /O2 /Oi /GL /D WIN32 /D NOMINMAX /D FMT_HEADER_ONLY /D FMT_USE_WINDOWS_H=0 /D _CRT_SECURE_NO_WARNINGS /D _CRT_NONSTDC_NO_DEPRECATE /D NDEBUG /D _CONSOLE /D WIN32 /D NDEBUG /D _CONSOLE /D _SILENCE_CXX17_OLD_ALLOCATOR_MEMBERS_DEPRECATION_WARNING /Gm- /EHsc /MD /GS /Gy /fp:precise /Zc:wchar_t /Zc:forScope /Zc:inline /std:c++17 /Fo"DSSEARCH-SERVER_X64\RELEASE\\" /Fd"DSSEARCH-SERVER_X64\RELEASE\VC141.PDB" /Gd /TP /FC M:\VERLOCKXI\SRC\SEARCH\PACKETS\LINKSHELL_LIST.CPP
^M:\VERLOCKXI\SRC\SEARCH\PACKETS\PARTY_LIST.CPP
/c /IM:\VERLOCKXI\WIN32\VCXPROJ\..\EXTERNAL /IM:\VERLOCKXI\WIN32\VCXPROJ\..\EXTERNAL\MYSQL /Zi /nologo /W3 /WX /diagnostics:classic /O2 /Oi /GL /D WIN32 /D NOMINMAX /D FMT_HEADER_ONLY /D FMT_USE_WINDOWS_H=0 /D _CRT_SECURE_NO_WARNINGS /D _CRT_NONSTDC_NO_DEPRECATE /D NDEBUG /D _CONSOLE /D WIN32 /D NDEBUG /D _CONSOLE /D _SILENCE_CXX17_OLD_ALLOCATOR_MEMBERS_DEPRECATION_WARNING /Gm- /EHsc /MD /GS /Gy /fp:precise /Zc:wchar_t /Zc:forScope /Zc:inline /std:c++17 /Fo"DSSEARCH-SERVER_X64\RELEASE\\" /Fd"DSSEARCH-SERVER_X64\RELEASE\VC141.PDB" /Gd /TP /FC M:\VERLOCKXI\SRC\SEARCH\PACKETS\PARTY_LIST.CPP
^M:\VERLOCKXI\SRC\SEARCH\PACKETS\SEARCH_COMMENT.CPP
/c /IM:\VERLOCKXI\WIN32\VCXPROJ\..\EXTERNAL /IM:\VERLOCKXI\WIN32\VCXPROJ\..\EXTERNAL\MYSQL /Zi /nologo /W3 /WX /diagnostics:classic /O2 /Oi /GL /D WIN32 /D NOMINMAX /D FMT_HEADER_ONLY /D FMT_USE_WINDOWS_H=0 /D _CRT_SECURE_NO_WARNINGS /D _CRT_NONSTDC_NO_DEPRECATE /D NDEBUG /D _CONSOLE /D WIN32 /D NDEBUG /D _CONSOLE /D _SILENCE_CXX17_OLD_ALLOCATOR_MEMBERS_DEPRECATION_WARNING /Gm- /EHsc /MD /GS /Gy /fp:precise /Zc:wchar_t /Zc:forScope /Zc:inline /std:c++17 /Fo"DSSEARCH-SERVER_X64\RELEASE\\" /Fd"DSSEARCH-SERVER_X64\RELEASE\VC141.PDB" /Gd /TP /FC M:\VERLOCKXI\SRC\SEARCH\PACKETS\SEARCH_COMMENT.CPP
^M:\VERLOCKXI\SRC\SEARCH\PACKETS\SEARCH_LIST.CPP
/c /IM:\VERLOCKXI\WIN32\VCXPROJ\..\EXTERNAL /IM:\VERLOCKXI\WIN32\VCXPROJ\..\EXTERNAL\MYSQL /Zi /nologo /W3 /WX /diagnostics:classic /O2 /Oi /GL /D WIN32 /D NOMINMAX /D FMT_HEADER_ONLY /D FMT_USE_WINDOWS_H=0 /D _CRT_SECURE_NO_WARNINGS /D _CRT_NONSTDC_NO_DEPRECATE /D NDEBUG /D _CONSOLE /D WIN32 /D NDEBUG /D _CONSOLE /D _SILENCE_CXX17_OLD_ALLOCATOR_MEMBERS_DEPRECATION_WARNING /Gm- /EHsc /MD /GS /Gy /fp:precise /Zc:wchar_t /Zc:forScope /Zc:inline /std:c++17 /Fo"DSSEARCH-SERVER_X64\RELEASE\\" /Fd"DSSEARCH-SERVER_X64\RELEASE\VC141.PDB" /Gd /TP /FC M:\VERLOCKXI\SRC\SEARCH\PACKETS\SEARCH_LIST.CPP
^M:\VERLOCKXI\SRC\SEARCH\SEARCH.CPP
/c /IM:\VERLOCKXI\WIN32\VCXPROJ\..\EXTERNAL /IM:\VERLOCKXI\WIN32\VCXPROJ\..\EXTERNAL\MYSQL /Zi /nologo /W3 /WX /diagnostics:classic /O2 /Oi /GL /D WIN32 /D NOMINMAX /D FMT_HEADER_ONLY /D FMT_USE_WINDOWS_H=0 /D _CRT_SECURE_NO_WARNINGS /D _CRT_NONSTDC_NO_DEPRECATE /D NDEBUG /D _CONSOLE /D WIN32 /D NDEBUG /D _CONSOLE /D _SILENCE_CXX17_OLD_ALLOCATOR_MEMBERS_DEPRECATION_WARNING /Gm- /EHsc /MD /GS /Gy /fp:precise /Zc:wchar_t /Zc:forScope /Zc:inline /std:c++17 /Fo"DSSEARCH-SERVER_X64\RELEASE\\" /Fd"DSSEARCH-SERVER_X64\RELEASE\VC141.PDB" /Gd /TP /FC M:\VERLOCKXI\SRC\SEARCH\SEARCH.CPP
^M:\VERLOCKXI\SRC\SEARCH\TCP_REQUEST.CPP
/c /IM:\VERLOCKXI\WIN32\VCXPROJ\..\EXTERNAL /IM:\VERLOCKXI\WIN32\VCXPROJ\..\EXTERNAL\MYSQL /Zi /nologo /W3 /WX /diagnostics:classic /O2 /Oi /GL /D WIN32 /D NOMINMAX /D FMT_HEADER_ONLY /D FMT_USE_WINDOWS_H=0 /D _CRT_SECURE_NO_WARNINGS /D _CRT_NONSTDC_NO_DEPRECATE /D NDEBUG /D _CONSOLE /D WIN32 /D NDEBUG /D _CONSOLE /D _SILENCE_CXX17_OLD_ALLOCATOR_MEMBERS_DEPRECATION_WARNING /Gm- /EHsc /MD /GS /Gy /fp:precise /Zc:wchar_t /Zc:forScope /Zc:inline /std:c++17 /Fo"DSSEARCH-SERVER_X64\RELEASE\\" /Fd"DSSEARCH-SERVER_X64\RELEASE\VC141.PDB" /Gd /TP /FC M:\VERLOCKXI\SRC\SEARCH\TCP_REQUEST.CPP
